measr - Estimating diagnostic classification models
…
3 attributes

Morphosyntactic rules

Cohesive rules

Lexical rules

ECPE data

library(measr)

ecpe_data

# A tibble: 2,922 × 29
   resp_id    E1    E2    E3    E4    E5    E6    E7    E8    E9   E10   E11
     <int> <int> <int> <int> <int> <int> <int> <int> <int> <int> <int> <int>
 1       1     1     1     1     0     1     1     1     1     1     1     1
 2       2     1     1     1     1     1     1     1     1     1     1     1
 3       3     1     1     1     1     1     1     0     1     1     1     1
 4       4     1     1     1     1     1     1     1     1     1     1     1
 5       5     1     1     1     1     1     1     1     1     1     1     1
 6       6     1     1     1     1     1     1     1     1     1     1     1
 7       7     1     1     1     1     1     1     1     1     1     1     1
 8       8     0     1     1     1     1     1     0     1     1     1     0
 9       9     1     1     1     1     1     1     1     1     1     1     1
10      10     1     1     1     1     0     0     1     1     1     1     1
# ℹ 2,912 more rows
# ℹ 17 more variables: E12 <int>, E13 <int>, E14 <int>, E15 <int>, E16 <int>,
#   E17 <int>, E18 <int>, E19 <int>, E20 <int>, E21 <int>, E22 <int>,
#   E23 <int>, E24 <int>, E25 <int>, E26 <int>, E27 <int>, E28 <int>

ECPE Q-matrix

ecpe_qmatrix

# A tibble: 28 × 4
   item_id morphosyntactic cohesive lexical
   <chr>             <int>    <int>   <int>
 1 E1                    1        1       0
 2 E2                    0        1       0
 3 E3                    1        0       1
 4 E4                    0        0       1
 5 E5                    0        0       1
 6 E6                    0        0       1
 7 E7                    1        0       1
 8 E8                    0        1       0
 9 E9                    0        0       1
10 E10                   1        0       0
# ℹ 18 more rows
…
How many respondents are in the data?

How many attributes are measured?

−&plus;

03:00

Data

Q-Matrix

mdm_data

# A tibble: 142 × 5
   respondent  mdm1  mdm2  mdm3  mdm4
   <chr>      <int> <int> <int> <int>
 1 7gray          1     1     1     1
 2 3dvje          1     1     1     1
 3 sl7fa          1     1     1     1
 4 bo4ps          1     1     1     1
 5 woxc7          1     1     1     1
 6 s9exl          1     1     1     1
 7 6cboa          1     1     1     1
 8 tckp1          1     1     1     1
 9 zfn2i          1     1     1     1
10 pre1b          1     1     1     1
# ℹ 132 more rows
…
Extracting item parameters

measr_extract() can be used to pull out components of an estimated model.

measr_extract(ecpe, "item_param")

# A tibble: 74 × 5
   item_id class       attributes                coef         estimate
   <fct>   <chr>       <chr>                     <glue>     <rvar[1d]>
 1 E1      intercept   <NA>                      l1_0     0.82 ± 0.074
 2 E1      maineffect  morphosyntactic           l1_11    0.59 ± 0.356
 3 E1      maineffect  cohesive                  l1_12    0.64 ± 0.217
 4 E1      interaction morphosyntactic__cohesive l1_212   0.54 ± 0.481
 5 E2      intercept   <NA>                      l2_0     1.04 ± 0.077
 6 E2      maineffect  cohesive                  l2_12    1.24 ± 0.147
 7 E3      intercept   <NA>                      l3_0    -0.35 ± 0.073
 8 E3      maineffect  morphosyntactic           l3_11    0.74 ± 0.379
 9 E3      maineffect  lexical                   l3_13    0.36 ± 0.115
10 E3      interaction morphosyntactic__lexical  l3_213   0.53 ± 0.395
# ℹ 64 more rows
…
# A tibble: 8 × 2
  class           estimate
  <chr>         <rvar[1d]>
1 [0,0,0]  0.2981 ± 0.0165
2 [1,0,0]  0.0118 ± 0.0063
3 [0,1,0]  0.0164 ± 0.0109
4 [0,0,1]  0.1279 ± 0.0198
5 [1,1,0]  0.0093 ± 0.0057
6 [1,0,1]  0.0184 ± 0.0100
7 [0,1,1]  0.1730 ± 0.0203
8 [1,1,1]  0.3451 ± 0.0167

Extracting respondent probabilities

# A tibble: 2,922 × 4
   resp_id morphosyntactic cohesive lexical
   <fct>             <dbl>    <dbl>   <dbl>
 1 1               0.997      0.955   1.00 
 2 2               0.995      0.899   1.00 
 3 3               0.983      0.988   1.00 
 4 4               0.998      0.990   1.00 
 5 5               0.988      0.980   0.955
 6 6               0.992      0.989   1.00 
 7 7               0.992      0.989   1.00 
 8 8               0.00436    0.444   0.961
 9 9               0.945      0.984   0.999
10 10              0.545      0.123   0.115
# ℹ 2,912 more rows
…
Respondent probabilities

measr_extract(mdm_lcdm, "strc_param")

# A tibble: 2 × 2
  class      estimate
  <chr>    <rvar[1d]>
1 [0]    0.49 ± 0.073
2 [1]    0.51 ± 0.073

mdm_lcdm <- add_respondent_estimates(mdm_lcdm)
measr_extract(mdm_lcdm, "attribute_prob")

# A tibble: 142 × 2
   respondent multiplication
   <fct>               <dbl>
 1 7gray               0.997
 2 3dvje               0.997
 3 sl7fa               0.997
 4 bo4ps               0.997
 5 woxc7               0.997
 6 s9exl               0.997
 7 6cboa               0.997
 8 tckp1               0.997
 9 zfn2i               0.997
10 pre1b               0.997
# ℹ 132 more rows
…
