measr - Evaluating diagnostic classification models
…
Calculating item-level fit

ecpe <- add_fit(ecpe, method = "ppmc",
                item_fit = c("conditional_prob", "odds_ratio"))

Extracting item-level fit

Conditional probabilities

Odds ratios

measr_extract(ecpe, "ppmc_conditional_prob")

# A tibble: 224 × 7
   item  class   obs_cond_pval ppmc_mean `2.5%` `97.5%`   ppp
   <fct> <chr>           <dbl>     <dbl>  <dbl>   <dbl> <dbl>
 1 E1    [0,0,0]         0.701     0.694  0.662   0.723 0.324
 2 E1    [1,0,0]         0.782     0.798  0.712   0.905 0.597
 3 E1    [0,1,0]         1         0.810  0.757   0.865 0    
 4 E1    [0,0,1]         0.611     0.694  0.662   0.723 1    
 5 E1    [1,1,0]         0.996     0.930  0.909   0.952 0    
 6 E1    [1,0,1]         0.486     0.798  0.712   0.905 1    
 7 E1    [0,1,1]         0.831     0.810  0.757   0.865 0.222
 8 E1    [1,1,1]         0.926     0.930  0.909   0.952 0.654
 9 E2    [0,0,0]         0.741     0.739  0.708   0.767 0.455
10 E2    [1,0,0]         0.835     0.739  0.708   0.767 0    
# ℹ 214 more rows

measr_extract(ecpe, "ppmc_odds_ratio")

# A tibble: 378 × 7
   item_1 item_2 obs_or ppmc_mean `2.5%` `97.5%`    ppp
   <fct>  <fct>   <dbl>     <dbl>  <dbl>   <dbl>  <dbl>
 1 E1     E2       1.61      1.39   1.07    1.73 0.102 
 2 E1     E3       1.42      1.49   1.21    1.80 0.666 
 3 E1     E4       1.58      1.39   1.13    1.70 0.093 
 4 E1     E5       1.68      1.48   1.09    1.93 0.164 
 5 E1     E6       1.64      1.40   1.09    1.76 0.112 
 6 E1     E7       1.99      1.70   1.37    2.07 0.0505
 7 E1     E8       1.54      1.55   1.16    2.03 0.503 
 8 E1     E9       1.18      1.25   1.01    1.52 0.707 
 9 E1     E10      1.82      1.59   1.28    1.96 0.108 
10 E1     E11      1.61      1.64   1.32    2.01 0.566 
# ℹ 368 more rows

Flagging item-level fit

Conditional probabilities

Odds ratios

measr_extract(ecpe, "ppmc_conditional_prob_flags")

# A tibble: 105 × 7
   item  class   obs_cond_pval ppmc_mean `2.5%` `97.5%`   ppp
   <fct> <chr>           <dbl>     <dbl>  <dbl>   <dbl> <dbl>
 1 E1    [0,1,0]         1         0.810  0.757   0.865 0    
 2 E1    [0,0,1]         0.611     0.694  0.662   0.723 1    
 3 E1    [1,1,0]         0.996     0.930  0.909   0.952 0    
 4 E1    [1,0,1]         0.486     0.798  0.712   0.905 1    
 5 E2    [1,0,0]         0.835     0.739  0.708   0.767 0    
 6 E2    [0,1,0]         1         0.907  0.888   0.925 0    
 7 E2    [0,0,1]         0.694     0.739  0.708   0.767 0.998
 8 E2    [1,1,0]         0.975     0.907  0.888   0.925 0    
 9 E2    [1,0,1]         0.424     0.739  0.708   0.767 1    
10 E3    [0,1,0]         0.365     0.414  0.379   0.448 0.997
# ℹ 95 more rows

measr_extract(ecpe, "ppmc_odds_ratio_flags")

# A tibble: 80 × 7
   item_1 item_2 obs_or ppmc_mean `2.5%` `97.5%`    ppp
   <fct>  <fct>   <dbl>     <dbl>  <dbl>   <dbl>  <dbl>
 1 E1     E13      1.80      1.45   1.15    1.79 0.0215
 2 E1     E17      2.02      1.40   1.05    1.82 0.005 
 3 E1     E26      1.61      1.25   1.02    1.53 0.0075
 4 E1     E28      1.86      1.41   1.09    1.76 0.008 
 5 E2     E4       1.73      1.36   1.09    1.67 0.0055
 6 E2     E14      1.64      1.24   1.01    1.52 0.0025
 7 E2     E15      1.92      1.45   1.07    1.89 0.021 
 8 E3     E23      1.83      1.50   1.22    1.82 0.0205
 9 E3     E24      1.63      1.39   1.17    1.62 0.0205
10 E4     E5       2.81      2.09   1.58    2.67 0.012 
# ℹ 70 more rows
…
ecpe <- add_reliability(ecpe)

Profile-level classification

Profile-level probabilities

Profile-level classifications

Profile reliability

measr_extract(ecpe, "class_prob")

# A tibble: 2,922 × 9
   resp_id `[0,0,0]` `[1,0,0]` `[0,1,0]` `[0,0,1]` `[1,1,0]` `[1,0,1]` `[0,1,1]`
   <fct>       <dbl>     <dbl>     <dbl>     <dbl>     <dbl>     <dbl>     <dbl>
 1 1         7.70e-6   9.83e-5   5.11e-7  0.00131  0.0000875  0.0436     0.00208
 2 2         5.85e-6   7.43e-5   2.00e-7  0.00306  0.0000344  0.0974     0.00196
 3 3         5.63e-6   1.67e-5   1.73e-6  0.00211  0.0000701  0.00970    0.0154 
 4 4         3.21e-7   4.06e-6   9.79e-8  0.000296 0.0000167  0.00985    0.00215
 5 5         1.17e-3   8.30e-3   3.57e-4  0.00127  0.0353     0.00933    0.00921
 6 6         2.97e-6   1.59e-5   9.08e-7  0.000912 0.0000651  0.00980    0.00663
 7 7         2.97e-6   1.59e-5   9.08e-7  0.000912 0.0000651  0.00980    0.00663
 8 8         3.73e-2   8.52e-5   1.34e-3  0.518    0.0000259  0.000586   0.439  
 9 9         6.55e-5   2.02e-4   2.00e-5  0.00657  0.000921   0.00933    0.0479 
10 10        4.05e-1   4.15e-1   3.58e-3  0.0379   0.0611     0.0180     0.00780
# ℹ 2,912 more rows
# ℹ 1 more variable: `[1,1,1]` <dbl>

measr_extract(ecpe, "class_prob") |> 
  pivot_longer(-resp_id,
               names_to = "profile",
               values_to = "prob") |> 
  slice_max(order_by = prob,
            by = resp_id)

# A tibble: 2,922 × 3
   resp_id profile  prob
   <fct>   <chr>   <dbl>
 1 1       [1,1,1] 0.953
 2 2       [1,1,1] 0.897
 3 3       [1,1,1] 0.973
 4 4       [1,1,1] 0.988
 5 5       [1,1,1] 0.935
 6 6       [1,1,1] 0.983
 7 7       [1,1,1] 0.983
 8 8       [0,0,1] 0.518
 9 9       [1,1,1] 0.935
10 10      [1,0,0] 0.415
# ℹ 2,912 more rows
…
Estimating classification consistency and accuracy for cognitive diagnostic assessment (Cui et al., 2012)

Attribute-level classification

Attribute-level probabilities

Attribute-level classifications

Classification reliability

measr_extract(ecpe, "attribute_prob")

# A tibble: 2,922 × 4
   resp_id morphosyntactic cohesive lexical
   <fct>             <dbl>    <dbl>   <dbl>
 1 1               0.997      0.955   1.00 
 2 2               0.995      0.899   1.00 
 3 3               0.983      0.988   1.00 
 4 4               0.998      0.990   1.00 
 5 5               0.988      0.980   0.955
 6 6               0.992      0.989   1.00 
 7 7               0.992      0.989   1.00 
 8 8               0.00436    0.444   0.961
 9 9               0.945      0.984   0.999
10 10              0.545      0.123   0.115
# ℹ 2,912 more rows

measr_extract(ecpe, "attribute_prob") |> 
  mutate(
    across(
      where(is.double),
      ~case_when(.x > 0.5 ~ 1L,
                 TRUE ~ 0L)
    )
  )

# A tibble: 2,922 × 4
   resp_id morphosyntactic cohesive lexical
   <fct>             <int>    <int>   <int>
 1 1                     1        1       1
 2 2                     1        1       1
 3 3                     1        1       1
 4 4                     1        1       1
 5 5                     1        1       1
 6 6                     1        1       1
 7 7                     1        1       1
 8 8                     0        0       1
 9 9                     1        1       1
10 10                    1        0       0
# ℹ 2,912 more rows
…
Measures of agreement to assess attribute-level classification accuracy and consistency for cognitive diagnostic assessments (Johnson & Sinharay, 2018)

Attribute-level probabilities

Attribute-level probabilities

Probability reliability

measr_extract(ecpe, "attribute_prob")

# A tibble: 2,922 × 4
   resp_id morphosyntactic cohesive lexical
   <fct>             <dbl>    <dbl>   <dbl>
 1 1               0.997      0.955   1.00 
 2 2               0.995      0.899   1.00 
 3 3               0.983      0.988   1.00 
 4 4               0.998      0.990   1.00 
 5 5               0.988      0.980   0.955
 6 6               0.992      0.989   1.00 
 7 7               0.992      0.989   1.00 
 8 8               0.00436    0.444   0.961
 9 9               0.945      0.984   0.999
10 10              0.545      0.123   0.115
# ℹ 2,912 more rows
…
